{
    "name": "_UtilityDefinition",
    "references": [
        "GUID:4307f53044263cf4b835bd812fc161a4",
        "GUID:2bafac87e7f4b9b418d9448d219b01ab"
    ],
    "includePlatforms": [],
    "excludePlatforms": [],
    "allowUnsafeCode": false,
    "overrideReferences": true,
    "precompiledReferences": [
        "DOTween.dll",
        "Newtonsoft.Json.dll",
        "protobuf-net.dll",
        "DOTweenEditor.dll"
    ],
    "autoReferenced": true,
    "defineConstraints": [],
    "versionDefines": [],
    "noEngineReferences": false
}