%YAML 1.1
%TAG !u! tag:unity3d.com,2011:
--- !u!114 &11400000
MonoBehaviour:
  m_ObjectHideFlags: 0
  m_CorrespondingSourceObject: {fileID: 0}
  m_PrefabInstance: {fileID: 0}
  m_PrefabAsset: {fileID: 0}
  m_GameObject: {fileID: 0}
  m_Enabled: 1
  m_EditorHideFlags: 0
  m_Script: {fileID: 11500000, guid: 3c7bdb97c5b1a184196f46ae164563ce, type: 3}
  m_Name: Entity_Knife
  m_EditorClassIdentifier: 
  Tags:
  - Tag: knife
    Amount: 0
  Components:
  - {fileID: 11400000, guid: 2c01da2b7edfebd4e9acccf88dfe3b3e, type: 2}
  Name: Knife
  WorldInstance: {fileID: 0}
  WorldEntity: {fileID: 0}
  Value: 15
  Description: A knife can be used to cut up the fish into pleasant, bite sized pieces.
