%YAML 1.1
%TAG !u! tag:unity3d.com,2011:
--- !u!114 &11400000
MonoBehaviour:
  m_ObjectHideFlags: 0
  m_CorrespondingSourceObject: {fileID: 0}
  m_PrefabInstance: {fileID: 0}
  m_PrefabAsset: {fileID: 0}
  m_GameObject: {fileID: 0}
  m_Enabled: 1
  m_EditorHideFlags: 0
  m_Script: {fileID: 11500000, guid: 3c7bdb97c5b1a184196f46ae164563ce, type: 3}
  m_Name: Entity_Perch
  m_EditorClassIdentifier: 
  Tags:
  - Tag: fish
    Amount: 0
  Components:
  - {fileID: 11400000, guid: 75b05a8630de11545acdc71bd41605c4, type: 2}
  - {fileID: 11400000, guid: b93367011683e3446bb57e9e353c2e63, type: 2}
  Name: Perch
  WorldInstance: {fileID: 0}
  WorldEntity: {fileID: 0}
  Value: 60
  Description: 
