%YAML 1.1
%TAG !u! tag:unity3d.com,2011:
--- !u!114 &11400000
MonoBehaviour:
  m_ObjectHideFlags: 0
  m_CorrespondingSourceObject: {fileID: 0}
  m_PrefabInstance: {fileID: 0}
  m_PrefabAsset: {fileID: 0}
  m_GameObject: {fileID: 0}
  m_Enabled: 1
  m_EditorHideFlags: 0
  m_Script: {fileID: 11500000, guid: 3c7bdb97c5b1a184196f46ae164563ce, type: 3}
  m_Name: Entity_Carp
  m_EditorClassIdentifier: 
  Tags:
  - Tag: fish
    Amount: 0
  Components:
  - {fileID: 11400000, guid: 8c2b95f53d04ef24b936be91cea0b673, type: 2}
  - {fileID: 11400000, guid: f0861a1537e8ca24cabf007255bed770, type: 2}
  Name: Carp
  WorldInstance: {fileID: 0}
  WorldEntity: {fileID: 0}
  Value: 20
  Description: 
