%YAML 1.1
%TAG !u! tag:unity3d.com,2011:
--- !u!114 &11400000
MonoBehaviour:
  m_ObjectHideFlags: 0
  m_CorrespondingSourceObject: {fileID: 0}
  m_PrefabInstance: {fileID: 0}
  m_PrefabAsset: {fileID: 0}
  m_GameObject: {fileID: 0}
  m_Enabled: 1
  m_EditorHideFlags: 0
  m_Script: {fileID: 11500000, guid: f15f997b3597b794a9cb0faf3243c97b, type: 3}
  m_Name: Item_Herring
  m_EditorClassIdentifier: 
  SlotDefinitions: []
  Modifiers: []
  Size:
    x: 1
    y: 1
  Identifier: 
  Name: Herring
  Sprite: {fileID: 7166842717353480711, guid: 01319a685cc1f63448c483a92d2b231c, type: 3}
  SpriteName: 
  StackSize: 0
  Description: Atlantic herring (Clupea harengus) is a herring in the family Clupeidae.
    It is one of the most abundant fish species in the world. They feed on copepods,
    krill and small fish, while their natural predators are seals, whales, cod and
    other larger fish.
