%YAML 1.1
%TAG !u! tag:unity3d.com,2011:
--- !u!114 &-6868386622791745794
MonoBehaviour:
  m_ObjectHideFlags: 3
  m_CorrespondingSourceObject: {fileID: 0}
  m_PrefabInstance: {fileID: 0}
  m_PrefabAsset: {fileID: 0}
  m_GameObject: {fileID: 0}
  m_Enabled: 1
  m_EditorHideFlags: 0
  m_Script: {fileID: 11500000, guid: 94da7773681865f4b8a3427de04459f4, type: 3}
  m_Name: PostProcessOutline
  m_EditorClassIdentifier: 
  active: 1
  enabled:
    overrideState: 1
    value: 1
  scale:
    overrideState: 1
    value: 2
  color:
    overrideState: 1
    value: {r: 1, g: 1, b: 1, a: 1}
  depthThreshold:
    overrideState: 1
    value: 15
  depthNormalThreshold:
    overrideState: 1
    value: 2
  depthNormalThresholdScale:
    overrideState: 1
    value: 5
  normalThreshold:
    overrideState: 1
    value: 2
--- !u!114 &-4033726896272321866
MonoBehaviour:
  m_ObjectHideFlags: 3
  m_CorrespondingSourceObject: {fileID: 0}
  m_PrefabInstance: {fileID: 0}
  m_PrefabAsset: {fileID: 0}
  m_GameObject: {fileID: 0}
  m_Enabled: 1
  m_EditorHideFlags: 0
  m_Script: {fileID: 11500000, guid: 94da7773681865f4b8a3427de04459f4, type: 3}
  m_Name: PostProcessOutline
  m_EditorClassIdentifier: 
  active: 1
  enabled:
    overrideState: 1
    value: 1
  scale:
    overrideState: 1
    value: 2
  color:
    overrideState: 1
    value: {r: 0.1938412, g: 0.35155118, b: 0.41509432, a: 1}
  depthThreshold:
    overrideState: 1
    value: 5
  depthNormalThreshold:
    overrideState: 1
    value: 0
  depthNormalThresholdScale:
    overrideState: 1
    value: 15
  normalThreshold:
    overrideState: 1
    value: 1.543
--- !u!114 &11400000
MonoBehaviour:
  m_ObjectHideFlags: 0
  m_CorrespondingSourceObject: {fileID: 0}
  m_PrefabInstance: {fileID: 0}
  m_PrefabAsset: {fileID: 0}
  m_GameObject: {fileID: 0}
  m_Enabled: 1
  m_EditorHideFlags: 0
  m_Script: {fileID: 11500000, guid: 8e6292b2c06870d4495f009f912b9600, type: 3}
  m_Name: Outline Profile
  m_EditorClassIdentifier: 
  settings:
  - {fileID: -4033726896272321866}
  - {fileID: 7320091830665048287}
--- !u!114 &7320091830665048287
MonoBehaviour:
  m_ObjectHideFlags: 3
  m_CorrespondingSourceObject: {fileID: 0}
  m_PrefabInstance: {fileID: 0}
  m_PrefabAsset: {fileID: 0}
  m_GameObject: {fileID: 0}
  m_Enabled: 1
  m_EditorHideFlags: 0
  m_Script: {fileID: 11500000, guid: 556797029e73b2347956b6579e77e05b, type: 3}
  m_Name: DepthOfField
  m_EditorClassIdentifier: 
  active: 0
  enabled:
    overrideState: 1
    value: 1
  focusDistance:
    overrideState: 1
    value: 0.1
  aperture:
    overrideState: 1
    value: 0.23
  focalLength:
    overrideState: 1
    value: 2
  kernelSize:
    overrideState: 1
    value: 2
